{
    "AVATAR_DIRECT_LINK": "[Direkter Link]({link})",
    "CHANNELINFO_BITRATE": "Sprachkanal Bitrate",
    "CHANNELINFO_CHANNEL_TYPE": "Kanaltyp",
    "CHANNELINFO_CONNECTED": "Verbundene Nutzer",
    "CHANNELINFO_OVERWRITE": "Rechteüberschreibungen",
    "CHANNELINFO_TEXT": "Text",
    "CHANNELINFO_VOICE": "Sprache",
    "DESCRIPTION_AVATAR": "Zeigt das Profilbild eines Nutzers an",
    "DESCRIPTION_CHANNELINFO": "Zeigt Informationen über einen Kanal an",
    "DESCRIPTION_FLIPCOIN": "Wirf eine Münze",
    "DESCRIPTION_INFO": "Zeigt Informationen über einen Bot an",
    "DESCRIPTION_INVITE": "Zeigt Informationen zur Einladung des Bots an",
    "DESCRIPTION_PICK": "Wählt eine Option aus mehreren Optionen aus",
    "DESCRIPTION_RANDOM": "Zeigt eine Zufallszahl mit Berücksichtigung eines unteren und oberen Limits",
    "DESCRIPTION_ROLEINFO": "Zeigt Informationen über eine Rolle an",
    "DESCRIPTION_SERVERINFO": "Zeigt Informationen über einen Server an",
    "DESCRIPTION_SUPPORT": "Zeigt den Einladungslink für den Supportkanal an",
    "INFO_FOOTER": "*Ayana Ersteller, Um Informationen über alle Shards anzuzeigen benutze {prefix}shardinfo",
    "INFO_USEFUL_LINKS": "**Nützliche Links:**\n[Lad mich ein]({invite}), [Minimale Einladung]({inviteMin}), [Ayana Status]({status}), [Support Server]({supportInvite}), [Spenden]({donate}), [Twitter]({twitter}), [Facebook]({facebook})",
    "INVITE_ALPHA": "Alles klar :ok_hand:\n\nBenutze folgenden Link, damit ich deinen Server betrete:\n\n{invite}\n\nHinweis: Gib Ayana Alpha nicht zu viele Rechte. Sie ist sehr instabil und es gibt keine Gewährleistung, wenn Sie etwas in deinem Server kaputt macht.",
    "INVITE_PRO": "Ayana PRO ist eine privat gehostete Instanz von Ayana exklusiv für Patreon Unterstützer\nHöhere Musikqualitat, weniger Ausfallszeit und mehr Stabilität sind nur einige der Vorteile, die du bekommst.\n\nUm mehr zu erfahren gehe auf {uri}.\nAlternativ kannst du die öffentliche Ayana hier einladen {invite}.",
    "INVITE_TEXT": "Alles klar :ok_hand:\nBenutze einen der folgenden Links, damit ich deinen Server betrete:\n\nEmpfohlene Rechte: {invite}\nMinimale Rechte: {invitemin}",
    "PICK_DEBUG": "Bitte gib mehrere Optionen mit Kommas getrennt an: =pick Option1,Option2,…",
    "PICK_LARGE_INPUT": "Die Eingabe der Option, welche ich auswählen wollte, ist zu Groß.",
    "RANDOM_LIMIT_ERROR": "Die untere Grenze kann nicht größer sein, als die obere Grenze.",
    "RANDOM_RESPONSE": "Deine Zufallszahl ist {num}.",
    "SERVERINFO_CHANNEL_COUNTS": "{text} Text / {voice} Sprache",
    "SUPPORT_TEXT": "Besuche unseren Support-Server für Unterstützung, bei Fehlern, oder um uns Verbesserungsvorschläge zu geben. {support}"
}
