{
    "ACTIONLOG_ACTIVE": "เปิด/ปิด",
    "ACTIONLOG_CHANNEL": "ช่องที่จะบันทึกlog",
    "ACTIONLOG_CONFIG_TITLE": "ตั่งค่าActionlog",
    "ACTIONLOG_EVENTS": "เปิด/ปิด log สำหรับเหตุการต่างๆ",
    "ACTIONLOG_MYCONFIG": "แสดงการตั่งค่าActionlog",
    "ACTIONLOG_NOCHANNEL": "ไม่ได้ระบุช่อง",
    "ACTIONLOG_NODISABLEDEVENTS": "ไม่มีเหตุการที่ปิดอยู่",
    "ACTIONLOG_SUCCESSRESPONSE": "อัพเดทการตั่งค่าของActionlog",
    "ACTIONLOG_VALIDCHANNEL": "โปรดระบุช่องข้อความที่ถูกต้อง",
    "AVATAR_DIRECT_LINK": "[ลิงก์]({link})",
    "AVATAR_GLOBAL": "[อวตาร์หลัก]({link})",
    "AVATAR_SERVER": "[อวตาร์เซิฟเวอร์]({link})",
    "BIGTEXT_MUSTBENUMBERSMALLER": "{option} ต้องเป็นตัวเลข <= {bound}.",
    "BIGTEXT_OUTPUTTOOLARGE": "อุ้ย!!! ข้อความขนาดมากกว่า 2,000 อักษร!",
    "BOTLIST_ERROR": "ไม่สามารถดึงรายชื่อบอทจาก carbonitex.net",
    "CHANNELINFO_BITRATE": "บิตเรตเสียง",
    "CHANNELINFO_CHANNEL_TYPE": "ประเภทช่อง",
    "CHANNELINFO_CONNECTED": "ผู้ใช้ที่เชื่อมต่อ",
    "CHANNELINFO_OVERWRITE": "การเขียนทับการอนุญาต",
    "CHANNELINFO_TEXT": "ข้อความ",
    "CHANNELINFO_VOICE": "เสียง",
    "DESCRIPTION_ACTIONLOG": "บันทึกการกระทำของกิลด์ในช่องที่ระบุ",
    "DESCRIPTION_AVATAR": "แสดงอวาตาร์ของผู้ใช้",
    "DESCRIPTION_BAN": "แบนผู้ใช้",
    "DESCRIPTION_BIGTEXT": "สร้างข้อความพร้อมตัวบ่งชี้ระดับภูมิภาค",
    "DESCRIPTION_BIGTEXTD": "เหมือนกับ bigtext แต่ลบคำสั่งของคุณออก",
    "DESCRIPTION_BOTLIST": "รับบอทลิสต์จาก carbon",
    "DESCRIPTION_CHANNELINFO": "แสดงข้อมูลเกี่ยวกับช่อง",
    "DESCRIPTION_CLEAN": "ฉันจะลบข้อความของฉัน 100 ข้อความล่าสุด",
    "DESCRIPTION_F": "Fเพื่อไว้อาลัย",
    "DESCRIPTION_FLIPCOIN": "พลิกเหรียญ",
    "DESCRIPTION_FORTUNE": "ข้อความคุกกี้เสี่ยงทาย",
    "DESCRIPTION_GIVEROLE": "ให้บทบาท",
    "DESCRIPTION_INFO": "แสดงข้อมูลเกี่ยวกับ Ayana",
    "DESCRIPTION_INVITE": "แสดงข้อมูลที่เกี่ยวข้องกับคำเชิญ",
    "DESCRIPTION_KICK": "เตะผู้ใช้",
    "DESCRIPTION_LENNY": "แสดงรูปภาพของ lenny",
    "DESCRIPTION_LENNYD": "เหมือนกับlenny แต่ลบคำสั่งของคุณออก",
    "DESCRIPTION_MODIFYROLE": "ปรับเปลี่ยนบทบาท",
    "DESCRIPTION_PRUNE": "กำลังลบข้อความ",
    "DESCRIPTION_RANDOM": "แสดงหมายเลขสุ่มแบบไม่จำกัดขีดจำกัดบนและล่าง",
    "DESCRIPTION_ROLE": "ให้,รับ และแก้ไขบทบาท",
    "DESCRIPTION_ROLEINFO": "แสดงข้อมูลเกี่ยวกับบทบาท",
    "DESCRIPTION_ROLEMEMBERS": "รายชื่อสมาชิกของตำแหน่ง",
    "DESCRIPTION_SAY": "ให้ฉันพูดอะไรบางอย่าง",
    "DESCRIPTION_SAYD": "เหมือนกับที่say แต่ลบคำสั่งของคุณออก",
    "DESCRIPTION_SERVERINFO": "แสดงข้อมูลเกี่ยวกับเซิร์ฟเวอร์",
    "DESCRIPTION_SHRUG": "แสดงภาพshug",
    "DESCRIPTION_SHRUGD": "เหมือนกับshug แต่ลบคำสั่งของคุณออก",
    "DESCRIPTION_SPONGEBOB": "มีมส์ Spongebob ล้อเลียน; และมีมส์ข้อความที่คุณให้",
    "DESCRIPTION_SUPPORT": "แสดงลิงก์เชิญสำหรับช่องซัพพอร์ท",
    "DESCRIPTION_TAKEROLE": "รับบทบาท",
    "DESCRIPTION_URBAN": "ค้นหาคำบน urbandictionary.com",
    "FORTUNE_ERROR": "เกิดข้อผิดพลาดระหว่างรับคุกกี้เสี่ยงทาย หากคุณต้องการความช่วยเหลือเพิ่มเติม โปรดรายงานสิ่งนี้ไปยังเซิร์ฟเวอร์ซัพพอร์ทของเรา (`support` สั่งให้รับคำเชิญ).",
    "F_PAID": "**{username}** ได้แสดงความเคารพ",
    "F_PAIDFOOTER": "{daily} วันนี้ {all} ทั้งหมด",
    "F_PAIDFOR": "**{username}** ได้แสดงความเคารพให้กับ**{type}**",
    "F_PAIDSTATS": "**{daily}** ถวายความอาลัยแล้ววันนี้ **{all}** ทั้งหมด",
    "INFO_FOOTER": "Ayana Creator หากต้องการดูข้อมูลเพิ่มเติมเกี่ยวกับชาร์ดทั้งหมด ให้ใช้ {prefix}shardinfo",
    "INFO_USEFUL_LINKS": "**Useful links:**\n[เชิญบอท]({invite}), [เชิญบอทแบบมินิมอล]({inviteMin}), [สถานะ Ayana]({status}), [เซิฟเวอร์ซัพพอร์ท]({supportInvite}), [โดเนท]({donate}), [Twitter]({twitter}), [Facebook]({facebook})",
    "INVITE_ALPHA": "แน่นอน :ok_hand:\nหากต้องการให้ฉันเข้าร่วมเซิร์ฟเวอร์ของคุณ โปรดคลิกลิงก์ด้านล่าง:\n\n{invite}\n\nหมายเหตุ: อย่าให้สิทธิ์แก่ Ayana Alpha บนเซิร์ฟเวอร์ของคุณมากเกินไป เธออาจไม่เสถียรและไม่มีการรับประกันหากเธอทำบางอย่างบนเซิร์ฟเวอร์ของคุณ",
    "INVITE_PRO": "Ayana PRO เป็นอินสแตนซ์ส่วนตัวของ Ayana ที่มีเอกสิทธิ์เฉพาะผู้สนับสนุน Patreon\nเพลงที่คุณภาพสูงขึ้น เวลาหยุดทำงานน้อยลง และความเสถียรที่มากขึ้นเป็นเพียงประโยชน์บางส่วนที่คุณจะได้รับ\n\nหากต้องการเรียนรู้เพิ่มเติม โปรดไปที่ {uri}\nหรือคุณสามารถเพิ่ม Ayana ได้ที่นี่ {invite}.",
    "INVITE_TEXT": "แน่นอน :ok_hand:\nหากต้องการให้ฉันเข้าร่วมเซิร์ฟเวอร์ของคุณ โปรดเลือกลิงก์ใดลิงก์หนึ่งต่อไปนี้:\n\nสิทธิ์ที่แนะนำ: {invite}\nสิทธิ์ขั้นต่ำ: {invitemin}",
    "KICK_TARGETHIGHERROLE": "{target} มีบทบาทที่สูงกว่าคุณ คุณไม่สามารถปรับเปลี่ยนได้",
    "KICK_TARGETHIGHERTHANBOT": "{target} มีบทบาทที่สูงกว่าฉัน ฉันไม่สามารถแก้ไขมันได้",
    "PICK_DEBUG": "โปรดระบุตัวเลือกหลายตัวโดยคั่นด้วยเครื่องหมายจุลภาค: {prefix}pick ตัวเลือก1, ตัวเลือก2, …",
    "PICK_LARGE_INPUT": "Inputของตัวเลือกที่ฉันต้องการเลือกมีขนาดใหญ่เกินไป",
    "PRUNE_ALREADYPRUNING": "มีคนรันคำสั่งในช่องนี้แล้ว! กรุณารอจนกว่าจะเสร็จสิ้น",
    "PRUNE_AMOUNT": "ลบข้อความตามจำนวนที่กำหนด",
    "PRUNE_ATTACHMENTS": "ลบเฉพาะข้อความที่มีไฟล์แนบ",
    "PRUNE_BOTS": "ลบข้อความทั้งหมดที่สร้างโดยบอท",
    "PRUNE_CHOOSEONE": "คุณควรเลือกหนึ่งในผู้ใช้และบอท",
    "PRUNE_DELETEDBYUSER": "ลบข้อความโดยผู้ใช้",
    "PRUNE_DONEPROCESSING": "เสร็จแล้ว! กำลังแสดงผลการลบด้านล่าง",
    "PRUNE_EMBEDS": "ลบเฉพาะข้อความembeds",
    "PRUNE_FILTER": "ลบเฉพาะข้อความที่มีสตริงที่ระบุ",
    "PRUNE_FOOTER": "เปิดใช้งานการลบอัตโนมัติ ข้อความนี้จะถูกลบออกหลังจาก 10 วินาที",
    "PRUNE_INVITES": "ตัดข้อความที่มีคำเชิญ Discord เท่านั้น",
    "PRUNE_MESSAGEDELETING": "กำลังลบ {count} ข้อความ อาจใช้เวลาสักครู่",
    "PRUNE_MESSAGEFETCHING": "กำลังดึงข้อความ อาจใช้เวลาสักครู่",
    "PRUNE_MESSAGEFETCHINGWITHCOUNT": "กำลังดึงข้อความจำนวน {count} ข้อความ อาจใช้เวลาสักครู่",
    "PRUNE_OLDMESSAGEDELETED": "ข้อความเก่าถูกลบ",
    "PRUNE_OLDMESSAGENOTDELETED": "ข้อความเก่าไม่ถูกลบ",
    "PRUNE_PINNED": "ลบข้อความที่ตรึงไว้ด้วย (จะไม่ถูกลบตามค่าเริ่มต้น)",
    "PRUNE_REACTIONS": "ลบเฉพาะreactของข้อความ",
    "PRUNE_REMOVEDBYUSER": "ลบข้อความที่มีการreactโดยผู้ใช้",
    "PRUNE_REMOVINGREACTIONS": "กำลังนำreactออกจากข้อความจำนวน {count} ข้อความ... อาจใช้เวลาสักครู่",
    "PRUNE_RESULTS": "ผลการลบ",
    "PRUNE_SILENT": "ปิดการใช้งานการพิมพ์ผลการลบในตอนท้าย",
    "PRUNE_SYSTEM": "ลบเฉพาะข้อความระบบ",
    "PRUNE_TOTALDELETED": "ลบข้อความทั้งหมด",
    "PRUNE_TOTALMSGSCANNED": "ผลสแกนข้อความทั้งหมด",
    "PRUNE_TOTALMSGSREACTIONSREMOVED": "ผลของข้อความreactทั้งหมดถูกลบออกจาก",
    "PRUNE_UNTIL": "ลบข้อความจนกว่าจะถึงข้อความที่กำหนด",
    "PRUNE_USER": "ลบข้อความทั้งหมดโดยผู้ใช้ที่ระบุ",
    "PRUNE_WRONGMESSAGEID": "ไม่พบIDข้อความที่ใช้ในตัวเลือก จนถึง ในช่องนี้",
    "RANDOM_LIMIT_ERROR": "ขั้นต่ำต้องไม่ใหญ่กว่าสูงสุด",
    "RANDOM_RESPONSE": "หมายเลขสุ่มของคุณคือ {num}",
    "ROLE_ALREADYPROCESSING": "ฉันกำลังดำเนินการตามคำขอของบทบาทในเซิร์ฟเวอร์นี้",
    "ROLE_BOTROLELOW": "ฉันไม่สามารถใช้หรือแก้ไขบทบาท `{role}` เพราะบทบาทสูงสุดของฉันไม่ได้อยู่เหนือบทบาทนั้น โปรดย้ายฉันไปสู่ตำแหน่งที่สูงขึ้น",
    "ROLE_CANNOTUSEINROLENOTINROLE": "คุณไม่สามารถรวม `inrole`, `notinrole` และ `norole` ได้",
    "ROLE_DONEPROCESSING": "เสร็จแล้ว! แก้ไขบทบาทของผู้ใช้ {amount} คน",
    "ROLE_INVALIDHEXCODE": "คุณไม่ได้ใช้รหัสฐานสิบหกที่ถูกต้อง ตัวอย่างรหัสฐานสิบหกที่ถูกต้อง ได้แก่ #F4C และ #F77800",
    "ROLE_MAXIMUMREACHED": "คำขอของคุณมีการเปลี่ยนแปลงบทบาทของผู้ใช้เกินจำนวนสูงสุด ถูกเปลี่ยนไปแค่ {limit} รายการ",
    "ROLE_MODIFIED": "บทบาท `{role}` ได้รับการแก้ไขแล้ว",
    "ROLE_NOOPTIONSSPECIFIED": "คุณไม่ได้ระบุตัวเลือกใดๆ ใช้คำสั่งhelpสำหรับคำสั่งนี้สำหรับข้อมูลเพิ่มเติม",
    "ROLE_PLEASEWAIT": "กรุณารอสักครู่ในขณะที่ฉันดำเนินการตามคำขอของคุณ (ผู้ใช้ที่ประมวลผลแล้ว: {usersProcessed})",
    "ROLE_TOOMANYOPTIONS": "คุณใช้มากกว่าหนึ่ง ตัวเลือกต่อไปนี้ไม่ถูกต้อง `user, users, bots`",
    "ROLE_USERROLELOW": "ไม่สามารถใช้หรือแก้ไขบทบาท `{role}` ได้เนื่องจากบทบาทสูงสุดของคุณไม่ได้อยู่เหนือบทบาทนั้น",
    "SAY_FOOTER": "ข้อความข้างต้นเป็นเนื้อหาที่ผู้ใช้สร้างขึ้น เลิกตั้งค่า `nosneak` เพื่อลบการฝังนี้",
    "SERVERINFO_CHANNEL_COUNTS": "{text}ข้อความ / {voice}เสียง",
    "SUPPORT_TEXT": "สำหรับการสนับสนุน ข้อเสนอแนะ หรือจุดบกพร่องของ Ayana โปรดเข้าร่วมเซิร์ฟเวอร์ซัพพอร์ท {support}",
    "URBAN_ERROR": "ไม่พบคำจำกัดความ"
}
