{
    "AWOO_OTHER": "{source} 嗷嗚了{target}",
    "AWOO_SELF": "{source} 嗷嗚了",
    "BAD_OTHER": "嗯...您好 {target} ，因為您做了壞壞的事情所以你正被 {source} 處罰",
    "BAD_SELF": "{source} 您想處罰自己嗎？好的",
    "BLUSH_OTHER": "噢看看這個， {target} 讓 {source} 臉紅了，真可愛",
    "BLUSH_SELF": "噢 {source} 臉紅了，到底是為什麼呢嘿嘿嘿",
    "CONFUSED_OTHER": "嗯... {target} 讓 {source} 困惑了，發生了什麼？",
    "CONFUSED_SELF": "嗯... {source} 困惑了呢 owo",
    "CUDDLE_OTHER": "噢 {source} 依偎著 {target}",
    "CUDDLE_SELF": "{source} 正需要一些依偎",
    "DANCE_OTHER": "{source} 與 {target} 共舞了，這一對真可愛",
    "DANCE_SELF": "owo {source} 突然跳起了舞來",
    "DESCRIPTION_AWOO": "犬走椛 \"awoo\" 的圖片",
    "DESCRIPTION_BAD": "角色做壞事的圖片",
    "DESCRIPTION_BLUSH": "角色臉紅的圖片",
    "DESCRIPTION_CONFUSED": "困惑中的動漫女孩圖片",
    "DESCRIPTION_CUDDLE": "依偎圖片；您也可以提及一些人來依偎他們",
    "DESCRIPTION_DANCE": "角色跳舞的圖片",
    "DESCRIPTION_HUG": "擁抱的圖片；您也可以提及一些人來擁抱他們",
    "DESCRIPTION_IDK": "當你沒有想法的時候可以使用的聳肩圖",
    "DESCRIPTION_INSULT": "隨機的污辱圖，您也可以提及一些人來欺負他們",
    "DESCRIPTION_INU": "從random.dog來的隨機狗狗圖",
    "DESCRIPTION_JOJO": "JoJo的奇妙冒險迷因",
    "DESCRIPTION_KISS": "親吻图片；你也可以提及某人来親他",
    "DESCRIPTION_LEWD": "好色！",
    "DESCRIPTION_LICK": "舔舔圖；您也可以提及某人來舔他",
    "DESCRIPTION_NEKO": "從random.cat來的隨機貓貓圖",
    "DESCRIPTION_NOM": "隨機的咀嚼/進食圖",
    "DESCRIPTION_NYAN": "貓娘的圖",
    "DESCRIPTION_OWO": "'OwO, what's this?'的迷因",
    "DESCRIPTION_PAT": "摸頭圖；您也可以提及一個使用者來摸他的頭",
    "DESCRIPTION_PICK": "從數個選項中選擇一個",
    "DESCRIPTION_POKE": "戳某人的圖；您也可以提及一個使用者來戳他",
    "DESCRIPTION_POUT": "角色噘嘴的圖",
    "DESCRIPTION_SLAP": "挨巴掌的圖；您也可以提及一個用戶來賞他巴掌",
    "DESCRIPTION_SLEEPY": "角色睡眠中的圖",
    "DESCRIPTION_SMUG": "角色壞笑的圖",
    "DESCRIPTION_STARE": "角色瞪眼的圖；您也可以提及一個使用者來瞪他",
    "DESCRIPTION_SUMFUK": "想要嘿咻嗎？",
    "DESCRIPTION_THUMBSUP": "豎起大拇指的圖",
    "DESCRIPTION_TRIGGERED": "被刺激到的迷因；您也可以提及一個使用者來告訴他您被刺激到了",
    "DESCRIPTION_WAA": "當您傷心的時候可以使用角色哭哭圖",
    "DESCRIPTION_WASTED": "Wasted迷因",
    "DESCRIPTION_WEEBSH": "各式各樣的隨機動漫圖",
    "HUG_OTHER": "{source} 擁抱了 {target}",
    "HUG_SELF": "{source} 來吧 （*抱住*）",
    "IDK_OTHER": "{source} 正在對 {target} 聳肩 ¯\\_(ツ)_/¯",
    "IDK_SELF": "{source} 正在聳肩 ¯\\_(ツ)_/¯",
    "INSULT_OTHER": "{source} 欺負了 {target} ，真狂",
    "INSULT_SELF": "哇嗚 {source} 正在欺侮自己",
    "KISS_OTHER": "{source} 對著 {target} 親了上去，他們在一起的時候好可愛",
    "KISS_SELF": "{source} 對著自己親吻？ 真抱歉啊",
    "LEWD_OTHER": "{source} 覺得 {target} 太色了",
    "LEWD_SELF": "{source} 太色了吧",
    "LICK_OTHER": "{source} 舔了 {target} ，好喔。",
    "LICK_SELF": "{source} 正在...舔他自己？",
    "NOM_OTHER": "{source} 與 {target} 正在互相吃著彼此 owo",
    "NOM_SELF": "{source} 吃著一些食物 uwu",
    "NYAN_OTHER": "嘿 {target} ，看起來 {source} 想要給你一些可愛的貓娘",
    "NYAN_SELF": "享受一些可愛的貓娘吧 {source}",
    "OWO_OTHER": "OwO，這是什麼？{target} 歡迎啊",
    "OWO_SELF": "OwO，這是什麼？",
    "PAT_OTHER": "{source} 摸了 {target} 的頭 <:awooo:311128748026232832>",
    "PAT_SELF": "欸欸， {source} 我會摸摸你的頭的 <:awooo:311128748026232832>",
    "POKE_OTHER": "{target} 被 {source} 戳了一下 owo <:eyespurple:365904551099760640>",
    "POKE_SELF": "{source} 被我戳了一下 <:eyespurple:365904551099760640>",
    "POUT_OTHER": "看起來{source} 對 {target} 噘嘴了，您剛剛做了什麼？",
    "POUT_SELF": "{source} 噘嘴了，這是為什麼呢？",
    "SLAP_OTHER": "{source} 扇了 {target} 一巴掌...他肯定是個真正的笨蛋吧",
    "SLAP_SELF": "嗯... {source} 正在對自己扇巴掌，蛤？",
    "SLEEPY_OTHER": "看起來 {source} 有點睏了， {target} 怎麼不幫一下他？ owo",
    "SLEEPY_SELF": "看起來 {source} 有些睏了，怎麼不去睡呢 ouo",
    "SMUG_OTHER": "{source} 正對著 {target} 壞笑呢 嘿嘿",
    "SMUG_SELF": "{source} 看起來在壞笑呢",
    "STARE_OTHER": "{source} 正瞪者 {target} ，嗯...真好奇為什麼",
    "STARE_SELF": "看起來 {source} 正瞪著什麼東西，到底是什麼呢",
    "SUMFUK_OTHER": "哈囉那邊那個 {target} ， {source} 想知道你要不要跟他嘿修呢",
    "SUMFUK_SELF": "看起來 {source} 想要嘿修",
    "THUMBSUP_OTHER": "嘿 {target} ， {source} 覺得你的點子很棒",
    "THUMBSUP_SELF": "{source} 覺得他有一個好點子",
    "TRIGGERED_OTHER": "{source} 被 {target} 刺激到了，您做了什麼？",
    "TRIGGERED_SELF": "{source} 看起來被刺激到了 OwO",
    "WAA_OTHER": "噢 {target} 你看，你讓 {source} 哭得很傷心",
    "WAA_SELF": "{source} 哭得很傷心 :c",
    "WASTED_OTHER": "{target} 被 {source} 殺了，WASTED",
    "WASTED_SELF": "{source} 被殺了，WASTED",
    "WEEBSH_FAIL": "從 weeb.sh取得`{type}`的圖片失敗了 :< 您應該再試一次。",
    "WEEBSH_FOOTER": "由weeb.sh提供支持",
    "WEEBSH_TYPES": "Weebsh類型"
}
