{
    "ACTIONLOG_ACTIVE": "Inschakelen/Uitschakelen",
    "ACTIONLOG_CHANNEL": "Kanaal om de acties te registreren.",
    "ACTIONLOG_CONFIG_TITLE": "ActionLog Configuratie",
    "ACTIONLOG_EVENTS": "Inschakelen/Uitschakelen log voor een specifieke handeling",
    "ACTIONLOG_MYCONFIG": "Toon actionlog configuratie",
    "ACTIONLOG_NOCHANNEL": "Geen kanaal gespecificeerd",
    "ACTIONLOG_NODISABLEDEVENTS": "Er zijn geen uitgeschakelde handelingen.",
    "ACTIONLOG_SUCCESSRESPONSE": "Jouw action log instellingen zijn aangepast.",
    "ACTIONLOG_VALIDCHANNEL": "Geef een geldig Tekst Kanaal op",
    "ALIASES_ADD_EXECUTED": "De alias `{name}` is toegevoegd voor `{value}`.",
    "ALIASES_ALREADY_USED": "Je kan niet een alias toevoegen voor een alias.",
    "ALIASES_AYANA_COMMAND": "De alias die je geprobeerd hebt om te zetten is al in gebruik bij Ayana.",
    "ALIASES_EXISTS": "Een alias bestaat al met de naam `{name}`. Kies een andere naam voor jouw alias.",
    "ALIASES_LIMIT_REACHED": "De alias limiet per guild is {limit}. Het limiet is al bereikt voor deze guild.",
    "ALIASES_MULTI_WORD_ERROR": "Een alias moet één woord zijn. Spaties zijn niet toegestaan in een alias naam.",
    "ALIASES_NOT_FOUND": "Geen alias gevonden met de naam `{name}`",
    "ALIASES_NO_ALIASES": "Er zijn geen aliases voor deze server",
    "ALIASES_REMOVE_EXECUTE": "De alias `{name}` is verwijderd.",
    "ALIASES_RENAME_EXECUTED": "De alias `{name}` is hernoemd naar `{newName}`.",
    "ALIASES_SAME_NAME": "De nieuwe alias naam is dezelfde als een bestaande.",
    "ALIASES_UPDATE_EXECUTE": "Waarde van alias `{name}` is aangepast naar `{value}`",
    "ALIASES_USERARGS_EXECUTE": "Gebruiker's argument waarde voor alias `{name}` is gewijzigd naar `{value}`",
    "AVATAR_DIRECT_LINK": "[Directe Link]({link})",
    "AVATAR_GLOBAL": "[Wereldwijde Avatar]({link})",
    "AVATAR_SERVER": "[Server Avatar]({link})",
    "BIGTEXT_MUSTBENUMBERSMALLER": "{option} moet een cijfer zijn <={bound}.",
    "BIGTEXT_OUTPUTTOOLARGE": "Oeps! Het output bericht is langer dan 2000 karakters!",
    "BOTLIST_ERROR": "Mislukt om botlijst op te halen van carbonitex.net",
    "CHANNELINFO_BITRATE": "Stem Bitrate",
    "CHANNELINFO_CHANNEL_TYPE": "Kanaal Type",
    "CHANNELINFO_CONNECTED": "Verbonden Gebruikers",
    "CHANNELINFO_OVERWRITE": "Permissie Overschrijving",
    "CHANNELINFO_TEXT": "Tekst",
    "CHANNELINFO_VOICE": "Stem",
    "DESCRIPTION_ACTIONLOG": "Registreert server acties in een specifiek kanaal",
    "DESCRIPTION_ALIASES": "Beheren van commando aliassen",
    "DESCRIPTION_ALIASES_ADD": "Alias toevoegen",
    "DESCRIPTION_ALIASES_EXECUTE": "Een alias uitvoeren",
    "DESCRIPTION_ALIASES_LIST": "Lijst van alle aliassen",
    "DESCRIPTION_ALIASES_REMOVE": "Alias verwijderen",
    "DESCRIPTION_ALIASES_RENAME": "Hernoem een bestaande alias",
    "DESCRIPTION_ALIASES_SHOW": "Toon de waarde van een specifieke alias",
    "DESCRIPTION_ALIASES_UPDATE": "Wijzig een commando voor een alias",
    "DESCRIPTION_ALIASES_USERARGS": "Stel de vlag in op waar of vals om gebruikersargumenten op te nemen als onderdeel van het commando",
    "DESCRIPTION_AVATAR": "Toon avatar van een gebruiker",
    "DESCRIPTION_BAN": "Verban gebruikers",
    "DESCRIPTION_BIGTEXT": "Genereert tekst met regionale indicatoren",
    "DESCRIPTION_BIGTEXTD": "Zelfde als grote tekst, maar ik verwijder ook jouw commando",
    "DESCRIPTION_BOTLIST": "Verkrijg botlijst van carbon",
    "DESCRIPTION_CHANNELINFO": "Toon informatie over een kanaal",
    "DESCRIPTION_CLEAN": "Ik zal mijn berichten van de laatste 100 berichten wissen",
    "DESCRIPTION_F": "F om respect te tonen",
    "DESCRIPTION_FLIPCOIN": "Gooi een munt",
    "DESCRIPTION_FORTUNE": "Gelukskoekjes berichten",
    "DESCRIPTION_GIVEROLE": "Geeft rollen",
    "DESCRIPTION_INFO": "Toon informatie over Ayana",
    "DESCRIPTION_INVITE": "Toon uitnodiging gerelateerde informatie",
    "DESCRIPTION_KICK": "Schop gebruikers eruit",
    "DESCRIPTION_LENNY": "Toon een afbeelding van lenny",
    "DESCRIPTION_LENNYD": "Zelfde als lenny, maar ik verwijder ook jouw commando",
    "DESCRIPTION_MODIFYROLE": "Modificeert een rol",
    "DESCRIPTION_OPTION_PERMISSIONS_CHANNEL": "Kanaal om op te richten",
    "DESCRIPTION_OPTION_PERMISSIONS_MEMBER": "Lid om op te richten",
    "DESCRIPTION_OPTION_PERMISSIONS_PERMISSION": "Permissie node om te modificeren",
    "DESCRIPTION_OPTION_PERMISSIONS_ROLE": "Rol om op te richten",
    "DESCRIPTION_PERMISSIONS": "Permissies beheren",
    "DESCRIPTION_PERMISSIONS_CHANNEL": "Modificeer permissies voor een kanaal",
    "DESCRIPTION_PERMISSIONS_GRANT": "Verleen een permissie node",
    "DESCRIPTION_PERMISSIONS_GUILD": "Modificeer permissies voor de hele server",
    "DESCRIPTION_PERMISSIONS_LIST": "Toon een lijst van alle beschikbare permissies",
    "DESCRIPTION_PERMISSIONS_MEMBER": "Modificeer permissies voor een server lid",
    "DESCRIPTION_PERMISSIONS_MEMBER_CHANNEL": "Modificeer permissies voor een gebruiker in een specifiek kanaal",
    "DESCRIPTION_PERMISSIONS_RESET": "Reset een permissie node",
    "DESCRIPTION_PERMISSIONS_REVOKE": "Trek een permissie node in",
    "DESCRIPTION_PERMISSIONS_ROLE": "Modificeer permissies voor een rol",
    "DESCRIPTION_PERMISSIONS_ROLE_CHANNEL": "Modificeer permissies voor een rol in een specifiek kanaal",
    "DESCRIPTION_PERMISSIONS_SHOW": "Bekijk huidige permissies",
    "DESCRIPTION_PRUNE": "Bericht verwijderen",
    "DESCRIPTION_RANDOM": "Toon een willekeurige nee met behulp van een hoog en laag limiet",
    "DESCRIPTION_ROLE": "Geef, neem en modificeer rollen",
    "DESCRIPTION_ROLEINFO": "Toon informatie over een rol",
    "DESCRIPTION_ROLEMEMBERS": "Lijst van de leden van een rol",
    "DESCRIPTION_SAY": "Laat mij iets zeggen",
    "DESCRIPTION_SAYD": "Zelfde als zeg, maar ik verwijder ook jouw commando",
    "DESCRIPTION_SERVERINFO": "Toon informatie over een server",
    "DESCRIPTION_SHRUG": "Toon een afbeelding van een shrug",
    "DESCRIPTION_SHRUGD": "Zelfde als shrug, maar ik verwijder ook jouw commando",
    "DESCRIPTION_SPONGEBOB": "Bespottende Spongebob meme; meme't ook de tekst die je geeft",
    "DESCRIPTION_SUPPORT": "Toon uitnodiging link voor support kanaal",
    "DESCRIPTION_TAKEROLE": "Neemt rollen",
    "DESCRIPTION_URBAN": "Zoek een woord op in urbandictionary.com",
    "FORTUNE_ERROR": "Er is een fout opgetreden tijdens het verkrijgen van een gelukskoekje. Als je meer hulp nodig hebt, rapporteer dit alsjeblieft naar onze support server (`support` commando om de uitnodiging te krijgen).",
    "F_PAID": "**{username}** heeft zijn respect getoond.",
    "F_PAIDFOOTER": "{daily} Vandaag, {all} alles",
    "F_PAIDFOR": "**{username}** heeft zijn respect getoond voor **{type}**.",
    "F_PAIDSTATS": "**{daily}** respects zijn vandaag getoond. **{all}** tot nu toe.",
    "INFO_FOOTER": "*Ayana Maker, om meer informatie te vertonen over alle shards, gebruik {prefix}shardinfo",
    "INFO_USEFUL_LINKS": "**Handige links:**\n[Nodig mij uit]({invite}), [Minimale uitnodiging]({inviteMin}), [Ayana Status]({status}), [Support Server]({supportInvite}), [Doneer]({donate}), [Twitter]({twitter}), [Facebook]({facebook})",
    "INVITE_ALPHA": "Geen probleem :ok_hand:\nOm mij jouw server te laten joinen, klik op de link hierbeneden:\n\n({invite})\n\nLet op: Geef Ayana Alpha niet teveel permissies op jouw server. Ze kan instabiel zijn en er is geen garantie als ze iets breekt op jouw server.",
    "INVITE_PRO": "Ayana PRO is een privé gehoste instantie van Ayana, exclusief voor Patreon supporters.\nHogere afspeelkwaliteit, minder downtime en meer stabiliteit zijn slechts enkele van de voordelen die je kan krijgen.\n\nVoor meer informatie of om je aan te sluiten, ga naar {uri}.\nAls alternatief kan je de publieke Ayana hier toevoegen {invite}.",
    "INVITE_TEXT": "Geen probleem :ok_hand:\nOm mij jouw server te laten joinen, klik op één van de volgende links:\n\nAangeraden Permissies: {invite}\nMinimale Permissies: {invitemin}",
    "KICK_TARGETHIGHERROLE": "{target} bezit een hogere rol dan jij. Je mag het niet modificeren.",
    "KICK_TARGETHIGHERTHANBOT": "{target} bezit een hogere rol dan ik. Ik kan het niet modificeren.",
    "PERMISSIONS_GRANT_TARGET": "Permissie `{permission}` is toegekend aan {target}.",
    "PERMISSIONS_GRANT_TARGET_CHANNEL": "Permissie `{permisson}` is toegekend voor {target} in {channel}",
    "PERMISSIONS_RESET_TARGET": "Permissie `{permission}` werd teruggezet naar standaard voor {target}.",
    "PERMISSIONS_RESET_TARGET_CHANNEL": "Permissie `{permisson}` teruggezet naar standaard voor {target} in {channel}",
    "PERMISSIONS_REVOKE_TARGET": "Permissie `{permission}` is verwijderd voor {target}.",
    "PERMISSIONS_REVOKE_TARGET_CHANNEL": "Permissie `{permisson}` ingetrokken voor {target} in {channel}",
    "PICK_DEBUG": "Voer meerdere opties in door gescheiden komma's: =pick optie1, optie2, …",
    "PICK_LARGE_INPUT": "De input van de optie die ik wilde kiezen is te groot.",
    "RANDOM_LIMIT_ERROR": "De ondergrens kan niet groter zijn dan de bovengrens.",
    "RANDOM_RESPONSE": "Jouw willekeurige nummer is {num}.",
    "ROLE_ALREADYPROCESSING": "Ik ben al bezig om een rol verzoek te verwerken in deze server.",
    "ROLE_BOTROLELOW": "Ik kan de rol `{role}` niet gebruiken of modificeren omdat mijn hoogste rol er niet boven is. Schuif mij naar een hogere role toe.",
    "ROLE_CANNOTUSEINROLENOTINROLE": "Je kan niet `inrole`, `notinrole` en `noroles` combineren.",
    "ROLE_DONEPROCESSING": "Klaar! Rollen gemodificeerd van {amount} gebruikers.",
    "ROLE_INVALIDHEXCODE": "Je hebt geen geldige hex code gebruikt. Voorbeelden van geldige hex codes zijn #F4C en #F77800.",
    "ROLE_MAXIMUMREACHED": "Jouw verzoek heeft het maximum overschreden van de {limit} gebruikersrol wijzingingen.",
    "ROLE_MODIFIED": "De rol `{role}` is gemodificeerd.",
    "ROLE_NOOPTIONSSPECIFIED": "Je hebt geen opties gespecificeerd. Raadpleeg de help commando om meer informatie hierover te krijgen.",
    "ROLE_PLEASEWAIT": "Een ogenblik geduld terwijl ik jouw verzoek aan het verwerken ben. (Gebruikers verwerkt: {usersProcessed})",
    "ROLE_TOOMANYOPTIONS": "Je hebt meer dan één van de volgende opties gebruikt, die ongeldig zijn: `user, users, bots`.",
    "ROLE_USERROLELOW": "De rol `{role}` kan niet gebruikt of gemodicieerd worden omdat jouw hoogste rol er niet boven is.",
    "SAY_FOOTER": "Het bovenstaande bericht is gebruiker-gegeneerde content. Zet `nosneak` uit om deze embed te verwijderen",
    "SERVERINFO_CHANNEL_COUNTS": "{text} tekst / {voice} stem",
    "SUPPORT_TEXT": "Voor hulp, suggesties, of bugs met Ayana, join onze support server alsjeblieft. {support}"
}
