{
    "AWOO_OTHER": "{source} awoo {target}",
    "AWOO_SELF": "{source} awoo",
    "BAD_OTHER": "Hi {target}, Anda dihukum oleh {source} karena Anda berkelakuan BURUK",
    "BAD_SELF": "Anda ingin menghukum diri sendiri {source}? oke",
    "BLUSH_OTHER": "Awww lihatlah ini, {target} membuat {source} tersipu malu, itu sangat lucu",
    "BLUSH_SELF": "Awww {source} tersipu malu, saya heran kenapa hehehe",
    "CONFUSED_OTHER": "Hmm {target} membuat {source} kebingungan, apa yang terjadi?",
    "CONFUSED_SELF": "Hmm {source} sedang kebingungan owo",
    "CUDDLE_OTHER": "Awww {source} memeluk {target}",
    "CUDDLE_SELF": "{source} mari berpelukan",
    "DANCE_OTHER": "{source} berdansa dengan {target}, pasangan yang sangat imut",
    "DANCE_SELF": "owo {source} tiba-tiba mulai berdansa",
    "DESCRIPTION_AWOO": "Gambar Momiji/Wan yang 'awoo'",
    "DESCRIPTION_BAD": "Gambar karakter yang melakukan sesuatu yang buruk",
    "DESCRIPTION_BLUSH": "Gambar karakter yang tersipu malu",
    "DESCRIPTION_CONFUSED": "Gambar gadis anime yang kebingungan",
    "DESCRIPTION_CUDDLE": "Gambar berpelukan; Anda juga dapat menyebutkan seseorang untuk memeluknya",
    "DESCRIPTION_DANCE": "Gambar karakter berdansa",
    "DESCRIPTION_HUG": "Gambar berangkulan; Anda juga dapat menyebutkan seseorang untuk merangkulnya",
    "DESCRIPTION_IDK": "Gambar mengangkat bahu ketika Anda tidak ada ide",
    "DESCRIPTION_INSULT": "Gambar penghinaan acak; Anda juga dapat menyebutkan seseorang untuk menghinanya",
    "DESCRIPTION_INU": "Gambar anjing acak dari random.dog",
    "DESCRIPTION_JOJO": "Meme JoJo's Bizarre Adventure",
    "DESCRIPTION_KISS": "Gambar ciuman; Anda juga dapat menyebutkan seseorang untuk menciumnya",
    "DESCRIPTION_LEWD": "Itu cabul!",
    "DESCRIPTION_LICK": "Gambar menjilat; Anda juga dapat menyebutkan seseorang untuk menjilatnya",
    "DESCRIPTION_NEKO": "Gambar kucing acak dari random.cat",
    "DESCRIPTION_NOM": "Gambar melahap/memakan acak",
    "DESCRIPTION_NYAN": "Gambar gadis kucing",
    "DESCRIPTION_OWO": "Meme 'OwO, what's this?'",
    "DESCRIPTION_PAT": "Gambar tepukan kepala; Anda juga dapat menyebutkan pengguna untuk menepuknya",
    "DESCRIPTION_PICK": "Pilih opsi dari beberapa pilihan",
    "DESCRIPTION_POKE": "Gambar mencolek; Anda juga dapat menyebutkan pengguna untuk mencoleknya",
    "DESCRIPTION_POUT": "Gambar karakter cemberut",
    "DESCRIPTION_SLAP": "Gambar tamparan; Anda juga dapat menyebutkan pengguna untuk menampar mereka",
    "DESCRIPTION_SLEEPY": "Gambar karakter yang tertidur",
    "DESCRIPTION_SMUG": "Gambar karakter sombong",
    "DESCRIPTION_STARE": "Gambar karakter yang sedang menatap; Anda juga dapat menyebutkan pengguna untuk menatapnya",
    "DESCRIPTION_SUMFUK": "­u want sum fuk?",
    "DESCRIPTION_THUMBSUP": "Gambar acungan jempol",
    "DESCRIPTION_TRIGGERED": "Meme triggered; Anda juga dapat menyebutkan pengguna untuk menunjukkan kepada mereka bahwa Anda terpicu padanya",
    "DESCRIPTION_WAA": "Gambar karakter menangis saat Anda sedih",
    "DESCRIPTION_WASTED": "Meme wasted",
    "DESCRIPTION_WEEBSH": "Gambar anime acak dari berbagai jenis",
    "HUG_OTHER": "{source} merangkul {target}",
    "HUG_SELF": "Mari berangkulan {source} *rangkul*",
    "IDK_OTHER": "{source} mengangkat bahu pada {target} ¯\\_(ツ)_/¯",
    "IDK_SELF": "{source} mengangkat bahu ¯\\_(ツ)_/¯",
    "INSULT_OTHER": "{source} menghina {target}, sungguh biadab",
    "INSULT_SELF": "{source} menghina dirinya sendiri wow",
    "KISS_OTHER": "{source} mencium {target}, mereka sangat serasi",
    "KISS_SELF": "Mencium dirimu sendiri {source}? Maaf untuk itu",
    "LEWD_OTHER": "{source} pikir bahwa {target} terlalu cabul",
    "LEWD_SELF": "{source} terlalu cabul",
    "LICK_OTHER": "{source} menjilat {target}, oke.",
    "LICK_SELF": "{source} sedang... menjilat dirinya sendiri?",
    "NOM_OTHER": "{source} dan {target} sedang melahap bersama owo",
    "NOM_SELF": "{source} sedang melahap makanan uwu",
    "NYAN_OTHER": "Hey {target}, sepertinya {source} ingin Anda memiliki beberapa gadis kucing yang lucu",
    "NYAN_SELF": "Miliki beberapa gadis kucing yang lucu {source}",
    "OWO_OTHER": "OwO, apa ini? Halo {target}",
    "OWO_SELF": "OwO, apa ini?",
    "PAT_OTHER": "{source} menepuk kepala {target} <:awooo:311128748026232832>",
    "PAT_SELF": "Sini sini saya elus-elus {source} <:awooo:311128748026232832>",
    "POKE_OTHER": "{target} dicolek oleh {source} owo <:eyespurple:365904551099760640>",
    "POKE_SELF": "{source} dicolek oleh saya <:eyespurple:365904551099760640>",
    "POUT_OTHER": "Sepertinya {source} cemberut pada {target}, apa yang sudah Anda lakukan?",
    "POUT_SELF": "{source} cemberut, kenapa ya?",
    "SLAP_OTHER": "{source} menampar {target}... Pasti dia sangat baka",
    "SLAP_SELF": "Hmm {source} sedang menampar dirinya sendiri, huh?",
    "SLEEPY_OTHER": "{target} sepertinya {source} mengantuk, kenapa tidak membantunya? ouo",
    "SLEEPY_SELF": "{source} sepertinya mengantuk, kenapa tidak pergi tidur ouo",
    "SMUG_OTHER": "{source} sombong pada {target} hehe",
    "SMUG_SELF": "{source} terlihat sedikit sombong",
    "STARE_OTHER": "{source} menatap kepada {target}, saya heran kenapa hmmm",
    "STARE_SELF": "Sepertinya {source} menatap kepada sesuatu, Aku ingin tahu apa itu",
    "SUMFUK_OTHER": "Halo{target}, {source} ingin tahu apakah anda ingin sum fuk",
    "SUMFUK_SELF": "Sepertinya {source} ingin sum fuk",
    "THUMBSUP_OTHER": "Hey {target}, {source} pikir idemu sangat hebat",
    "THUMBSUP_SELF": "{source} pikir dia memiliki ide yang hebat",
    "TRIGGERED_OTHER": "{source} terpicu karena {target}, apa yang Kamu lakukan?",
    "TRIGGERED_SELF": "{source} sepertinya terpicu OwO",
    "WAA_OTHER": "Awww lihat {target}, Kamu membuat {source} sedih",
    "WAA_SELF": "{source} sedang bersedih :c",
    "WASTED_OTHER": "{target} telah TERBUNUH oleh {source}",
    "WASTED_SELF": "{source} telah TERBUNUH",
    "WEEBSH_FAIL": "Gagal untuk mendapatkan gambar `{type}` dari weeb.sh :< Anda harus mencoba lagi.",
    "WEEBSH_FOOTER": "Didukung oleh weeb.sh",
    "WEEBSH_TYPES": "Tipe Weebsh"
}
