{
    "DESCRIPTION_MUSIC": "Pemutar Musik Ayana",
    "DESCRIPTION_MUSIC_BACK": "Melompat ke lagu sebelumnya",
    "DESCRIPTION_MUSIC_DEBUG": "Menampilkan informasi debug musik",
    "DESCRIPTION_MUSIC_FASTFORWARD": "Mempercepat pemutaran lagu",
    "DESCRIPTION_MUSIC_JOIN": "Bergabung ke kanal suara",
    "DESCRIPTION_MUSIC_JUMP": "Melewati ke lagu tertentu",
    "DESCRIPTION_MUSIC_LEAVE": "Meninggalkan kanal",
    "DESCRIPTION_MUSIC_PAUSE": "Alihkan jeda",
    "DESCRIPTION_MUSIC_PLAY": "Memainkan antrean",
    "DESCRIPTION_MUSIC_PROVIDERS": "Menampilkan daftar penyedia lagu yang didukung",
    "DESCRIPTION_MUSIC_PURGE": "Menghapus semua lagu dari antrean",
    "DESCRIPTION_MUSIC_QUEUE": "Menambahkan lagu ke antrean",
    "DESCRIPTION_MUSIC_REMOVE": "Menghapus lagu dari antrean",
    "DESCRIPTION_MUSIC_REMOVERANGE": "Menghapus lagu diantara dua posisi",
    "DESCRIPTION_MUSIC_REPEAT": "Mengelola mode berulang",
    "DESCRIPTION_MUSIC_REWIND": "Memutar ulang lagu",
    "DESCRIPTION_MUSIC_SEEK": "Menuju ke posisi dalam lagu yang sedang diputar",
    "DESCRIPTION_MUSIC_SHUFFLE": "Mengacak antrean",
    "DESCRIPTION_MUSIC_SKIP": "Melewati ke lagu berikutnya",
    "DESCRIPTION_MUSIC_STOP": "Menghentikan pemutaran",
    "MUSIC_AUTHOR_NO_CHANNEL": "Anda tidak berada dalam kanal suara.",
    "MUSIC_AUTOLEAVE": ":no_entry_sign: Meninggalkan kanal karena tidak aktif.",
    "MUSIC_BACKSKIPPED": ":arrow_backward: Melompati mundur `{track}`.",
    "MUSIC_BACK_END": "Awal dari antrean, tidak ada yang bisa dilompati mundur.",
    "MUSIC_EXCEPTION": "Terjadi kesalahan \"{severity}\": {message}.",
    "MUSIC_JOIN_MESSAGE": ":white_check_mark: Bergabung :speaker:`{voice}`.",
    "MUSIC_JUMPED": "Melompat ke `{track}` pada posisi **{position}**",
    "MUSIC_LEAVE_MESSAGE": ":no_entry: Meninggalkan dan melepaskan kanal.",
    "MUSIC_NO_MATCHES": "Gagal menemukan kecocokan yang sesuai",
    "MUSIC_NO_TRACK_AT_POSITION": "Tidak ada lagu pada posisi tersebut.",
    "MUSIC_PAUSED": ":play_pause: Pemutaran dijeda.",
    "MUSIC_QUEUE": "Antrean Musik",
    "MUSIC_QUEUED": "Mengantrekan `{track}` ke posisi **{position}**.",
    "MUSIC_QUEUED_PLAYLIST": "Mengantrekan `{count}` lagu dari `{playlist}`.",
    "MUSIC_QUEUE_CURRENT_FLARE": "{arrow} sedang diputar",
    "MUSIC_QUEUE_EMPTY": "Tidak ada apa-apa dalam antrean. Coba tambahkan sesuatu dengan `music play`!",
    "MUSIC_QUEUE_PURGED": "Menghapus `{count}` lagu dari antrean.",
    "MUSIC_QUEUE_SHUFFLED": "Mengacak `{count}` lagu.",
    "MUSIC_RANGE_START_ERROR": "Awal tidak boleh lebih besar dari akhir atau {size}.",
    "MUSIC_REMOVED": "Menghapus `{track}` dari antrean.",
    "MUSIC_REMOVED_COUNT": "Menghapus `{count}` lagu dari antrean.",
    "MUSIC_REMOVE_CONFIRM": "Apakah Anda yakin ingin menghapus `{track}` [y/n]:",
    "MUSIC_REMOVE_MULTI_CONFIRM": "Apakah Anda yakin ingin menghapus `{count}` lagu dari antrean [y/n]:",
    "MUSIC_REPEAT_OFF": ":no_entry: Pengulangan dinonaktifkan.",
    "MUSIC_REPEAT_QUEUE": ":repeat: Mengulangi seluruh antrean.",
    "MUSIC_REPEAT_TRACK": ":repeat_one: Mengulangi satu lagu.",
    "MUSIC_SEEK_FASTFORWARD": ":fast_forward: Mempercepat ke `{position}`.",
    "MUSIC_SEEK_NOT_PLAYING": "Tidak dapat menggeser saat tidak ada yang diputar.",
    "MUSIC_SEEK_NOT_SEEKABLE": "Lagu saat ini tidak dapat digeser",
    "MUSIC_SEEK_REWIND": ":rewind: Memutar ulang ke `{position}`.",
    "MUSIC_SEEK_TOO_LONG": "Penggeseran melebihi panjang lagu",
    "MUSIC_SKIPPED": ":arrow_forward: `{track}` dilewati.",
    "MUSIC_SKIP_END": "Akhir antrean, tidak ada yang bisa dilewati.",
    "MUSIC_STOPPED": ":stop_button: Pemutaran dihentikan.",
    "MUSIC_TRACKS_CHOOSE": "Beberapa lagu cocok, pilih salah satu di bawah ini:",
    "MUSIC_TRACK_ERROR": "Terjadi kesalahan saat mencoba memainkan `{track}`: ```{error}```",
    "MUSIC_UNPAUSED": ":play_pause: Pemutaran dilanjutkan."
}
