{
    "ACTIONLOG_ACTIVE": "Ativar/Desativar",
    "ACTIONLOG_CHANNEL": "Canal para registrar ações.",
    "ACTIONLOG_CONFIG_TITLE": "Configuração do log de ação",
    "ACTIONLOG_EVENTS": "Ativar/desativar registro para eventos específicos",
    "ACTIONLOG_MYCONFIG": "Mostrar configuração do log de ações",
    "ACTIONLOG_NOCHANNEL": "Nenhum canal especificado",
    "ACTIONLOG_NODISABLEDEVENTS": "Não há eventos desativados.",
    "ACTIONLOG_SUCCESSRESPONSE": "Atualizou suas configurações de log de ação.",
    "ACTIONLOG_VALIDCHANNEL": "Por favor providencie um canal de texto válido",
    "AVATAR_DIRECT_LINK": "[Link Direto]({link})",
    "BIGTEXT_MUSTBENUMBERSMALLER": "{option} deve ser um número <= {bound}.",
    "BIGTEXT_OUTPUTTOOLARGE": "Ooops! A mensagem de saída tem mais de 2.000 caracteres!",
    "CHANNELINFO_BITRATE": "Taxa de bits da voz",
    "CHANNELINFO_CHANNEL_TYPE": "Tipo de canal",
    "CHANNELINFO_CONNECTED": "Utilizadores conectados",
    "CHANNELINFO_OVERWRITE": "Substituição de permissões",
    "CHANNELINFO_TEXT": "Texto",
    "CHANNELINFO_VOICE": "Voz",
    "DESCRIPTION_ACTIONLOG": "Registra ações da guilda em um canal específico",
    "DESCRIPTION_AVATAR": "Mostrar o avatar dum utilizador",
    "DESCRIPTION_BAN": "Usuários banidos",
    "DESCRIPTION_BIGTEXT": "Gera texto com indicadores regionais",
    "DESCRIPTION_BIGTEXTD": "O mesmo que bigtext, mas também removo seu comando",
    "DESCRIPTION_CHANNELINFO": "Mostrar informação sobre um canal",
    "DESCRIPTION_F": "F para prestar homenagem",
    "DESCRIPTION_FLIPCOIN": "Lançar uma moeda ao ar",
    "DESCRIPTION_FORTUNE": "Mensagens de biscoitos da sorte",
    "DESCRIPTION_GIVEROLE": "Dar cargos",
    "DESCRIPTION_INFO": "Mostrar informações sobre Ayana",
    "DESCRIPTION_INVITE": "Mostrar informações relacionadas com o convite",
    "DESCRIPTION_KICK": "Expulsar usuários",
    "DESCRIPTION_LENNY": "Mostra uma imagem de lenny",
    "DESCRIPTION_LENNYD": "Mesmo que lenny, mas eu removo seu comando",
    "DESCRIPTION_MODIFYROLE": "Modifica um cargo",
    "DESCRIPTION_RANDOM": "Exibir um não aleatório com suporte de limite superior e inferior",
    "DESCRIPTION_ROLE": "Dê, pegue e modifique cargos",
    "DESCRIPTION_ROLEINFO": "Mostra informações sobre um cargo",
    "DESCRIPTION_SAY": "Me diga alguma coisa",
    "DESCRIPTION_SAYD": "O mesmo que dizer, mas também removo seu comando",
    "DESCRIPTION_SERVERINFO": "Mostra informações sobre um servidor",
    "DESCRIPTION_SHRUG": "Mostra uma imagem de encolher de ombros",
    "DESCRIPTION_SHRUGD": "O mesmo shrug, mas também removo seu comando",
    "DESCRIPTION_SPONGEBOB": "Bob Esponja zombando de meme; também memes o texto que você dá",
    "DESCRIPTION_SUPPORT": "Mostra o link de convite para o canal de suporte",
    "DESCRIPTION_TAKEROLE": "Dá cargos",
    "FORTUNE_ERROR": "Ocorreu um erro ao receber o bolinho da sorte. Se precisares de mais ajuda, por favor comunica isto ao nosso servidor de apoio (comando `support` para receber o convite).",
    "F_PAID": "**{username}** prestou seus respeitos.",
    "F_PAIDFOOTER": "{daily} Hoje, {all} tudo",
    "F_PAIDFOR": "**{username}** prestou homenagem a **{type}**.",
    "F_PAIDSTATS": "**{daily}** respeitos foram pagos hoje. **{all}** o tempo todo.",
    "INFO_FOOTER": "*Criador da Ayana, para ver mais informações sobre todas as shards use {prefix}shardinfo",
    "INVITE_ALPHA": "Claro :ok_hand:\nPara que eu me junte ao teu servidor, por favor clica no link abaixo:\n\n{invite}\n\nNota: Não dês demasiadas permissões à Ayana Alpha no teu servidor. Poderá ficar instável e não há garantia se ela avariar alguma coisa no teu servidor.",
    "KICK_TARGETHIGHERROLE": "{target} possui um cargo mais importante do que tu. Não o podes alterar.",
    "KICK_TARGETHIGHERTHANBOT": "{target} possui um cargo mais importante do que eu. Não o posso alterar.",
    "SERVERINFO_CHANNEL_COUNTS": "{text} texto / {voice} voz"
}
