{
    "AYANA_VERSION": "Ayana Versiyonu",
    "BENTOCORD_VERSION": "Bentocord Versiyonu",
    "BENTO_VERSION": "Bento Versiyonu",
    "GUILD_LOCALE_UPDATED": "Sunucu dil ayarı {locale} olarak değiştirildi.",
    "LOCALIZATION_FAILURE": "Anahtar `{key}` için bir çeviri bulunamadı",
    "LOCALIZATION_FORMAT_FAILURE": "Çeviriyi formatlamada hata, `{key}`: {error}",
    "USER_LOCALE_UPDATED": "Dil ayarınız {locale} olarak değiştirildi."
}
