{
    "ACTIONLOG_ACTIVE": "Включить/Отключить",
    "AVATAR_DIRECT_LINK": "[Прямая ссылка]({link})",
    "BIGTEXT_MUSTBENUMBERSMALLER": "{option} должно быть числом <= {bound}.",
    "BIGTEXT_OUTPUTTOOLARGE": "Воу-оу! Итоговое сообщение вышло длиннее 2000 символов!",
    "CHANNELINFO_BITRATE": "Битрейт",
    "CHANNELINFO_CHANNEL_TYPE": "Тип канала",
    "CHANNELINFO_CONNECTED": "Подключено пользователей",
    "CHANNELINFO_OVERWRITE": "Перезаписей прав",
    "CHANNELINFO_TEXT": "Текстовый",
    "CHANNELINFO_VOICE": "Голосовой",
    "DESCRIPTION_AVATAR": "Отобразить аватарку пользователя",
    "DESCRIPTION_BAN": "Забанить пользователей",
    "DESCRIPTION_BIGTEXT": "Сгенерировать текст из региональных индикаторов",
    "DESCRIPTION_BIGTEXTD": "То же самое, что и bigtext, но удаляет ваше сообщение",
    "DESCRIPTION_CHANNELINFO": "Отобразить информацию о канале",
    "DESCRIPTION_FLIPCOIN": "Подбросить монетку",
    "DESCRIPTION_FORTUNE": "Послания печенья с предсказаниями",
    "DESCRIPTION_GIVEROLE": "Выдача ролей",
    "DESCRIPTION_INFO": "Отобразить информацию о Айяне",
    "DESCRIPTION_INVITE": "Отобразить информацию о приглашениях",
    "DESCRIPTION_KICK": "Выгнать пользователей",
    "DESCRIPTION_LENNY": "Отобразить изображение Lenny",
    "DESCRIPTION_LENNYD": "То же самое, что и lenny, но удаляет ваше сообщение",
    "DESCRIPTION_MODIFYROLE": "Изменить роль",
    "DESCRIPTION_RANDOM": "Отобразить рандомное число с поддержкой нижнего и верхнего порога",
    "DESCRIPTION_ROLE": "Выдача, изъятие и изменение ролей",
    "DESCRIPTION_ROLEINFO": "Отобразить информацию о роли",
    "DESCRIPTION_SAY": "Пусть я скажу что-нибудь",
    "DESCRIPTION_SAYD": "То же самое, что say, но я удалю вашу команду",
    "DESCRIPTION_SERVERINFO": "Отобразить информацию о сервере",
    "DESCRIPTION_SHRUG": "Отобразить картинку пожатия плечами",
    "DESCRIPTION_SHRUGD": "То же самое, что shrug, но я удалю вашу команду",
    "DESCRIPTION_SPONGEBOB": "Губка боб высмеивающий мемы, также высмеет текст, что вы укажете",
    "DESCRIPTION_SUPPORT": "Отобразить ссылку-приглашение на канал поддержки",
    "DESCRIPTION_TAKEROLE": "Забрать роли",
    "FORTUNE_ERROR": "Произошла ошибка при получении печенья с предсказанием. Если вам нужна помощь, пожалуйста сообщите об этом на нашем сервере поддержки (для получения приглашения используйте команду `support`).",
    "INFO_FOOTER": "*Создатель Айяны, Чтобы увидеть информацию обо всех шардах, используйте {prefix}shardinfo",
    "INFO_USEFUL_LINKS": "**Полезные ссылки**\n[Пригласить меня]({invite}), [Минимальное приглашение]({inviteMin}), [Статус Айяны]({status}), [Сервер поддержки]({supportInvite}), [Пожертвовать]({donate}), [Twitter]({twitter}), [Facebook]({facebook})",
    "INVITE_ALPHA": "Конечно :ok_hand:\nЧтобы я присоединилась к вашему серверу, пожалуйста, кликните на ссылку ниже:\n\n{invite}\n\nОбратите внимание: Не стоит выдавать Альфа Айяне слишком много прав на вашем сервере. Она может быть нестабильна и нет никакой гарантии, что она ничего не сломает на вашем сервере.",
    "INVITE_PRO": "Айяна ПРО это приватный инстанс Айяны эксклюзивно для поддержавших на Patreon.\nБолее высокое качество проигрывания, меньшее время простоя и большая стабильность - это всего несколько преимуществ, что вы получите.\n\nЧтобы узнать больше или принять участие в проекте, перейдите по {uri}.\nА также вы можете добавить публичную версию Айяны здесь {invite}.",
    "INVITE_TEXT": "Конечно :ok_hand:\nЧтобы я присоединилась к вашему серверу, пожалуйста, кликните по ссылке ниже:\n\nРекомендуемый набор прав: {invite}\nМинимальный набор: {invitemin}",
    "KICK_TARGETHIGHERROLE": "{target} имеет более высокую роль, чем вы, так что вы не можете сделать это.",
    "KICK_TARGETHIGHERTHANBOT": "{target} имеет более высокую роль, чем я, так что я не могу сделать это.",
    "PICK_DEBUG": "Пожалуйста, укажите больше вариантов через запятую: =pick вариант1, вариант2, …",
    "PICK_LARGE_INPUT": "Вариант, который я хотела выбрать слишком длинный.",
    "RANDOM_LIMIT_ERROR": "Нижний порог не должен быть больше верхнего.",
    "RANDOM_RESPONSE": "Ваше рандомное число - {num}.",
    "ROLE_ALREADYPROCESSING": "Я уже обрабатываю запрос на роль на этом сервере.",
    "ROLE_BOTROLELOW": "Я не могу взаимодействовать с ролью `{role}` потому что моя высшая роль ниже ее. Пожалуйста, переместите мою роль выше.",
    "ROLE_CANNOTUSEINROLENOTINROLE": "Вы не можете комбинировать `inrole`, `notinrole` и `noroles`.",
    "ROLE_DONEPROCESSING": "Готово! Изменены роли {amount} пользователей.",
    "ROLE_INVALIDHEXCODE": "Вы использовали невалидный HEX-код. Примеры валидных кодов: #F4C и #F77800.",
    "ROLE_MAXIMUMREACHED": "Ваш запрос превысил максимум в {limit} изменений ролей пользователей.",
    "ROLE_MODIFIED": "Роль `{role}` изменена.",
    "ROLE_NOOPTIONSSPECIFIED": "Вы не указали никаких опций. Пожалуйста, проверьте помощь по этой команде чтобы узнать больше.",
    "ROLE_PLEASEWAIT": "Пожалуйста, подождите пока я обработаю ваш запрос. (Пользователи в процессе: {usersProcessed})",
    "ROLE_TOOMANYOPTIONS": "Вы использовали более одной из следующих опций, что недопустимо `user, users, bots`.",
    "ROLE_USERROLELOW": "Роль `{role}` не может быть изменена, поскольку ваша роль ниже ее.",
    "SAY_FOOTER": "Сообщение выше - это пользовательский контент. Уберите `nosneak` чтобы убрать это вложение",
    "SERVERINFO_CHANNEL_COUNTS": "{text} текстовых / {voice} голосовых",
    "SUPPORT_TEXT": "Для поддержки, предложений или проблем с Айяной, пожалуйста присоединитесь к серверу поддержки. {support}"
}
